<?xml version="1.0" encoding="UTF-8"?>
<svg width="8px" height="12px" viewBox="0 0 8 12" version="1.1" xmlns="http://www.w3.org/2000/svg" xmlns:xlink="http://www.w3.org/1999/xlink">
    <!-- Generator: sketchtool 41.2 (35397) - http://www.bohemiancoding.com/sketch -->
    <title>A44B2633-9717-46D7-9119-76E85CCEBA9D</title>
    <desc>Created with sketchtool.</desc>
    <defs></defs>
    <g id="Desktop" stroke="none" stroke-width="1" fill="none" fill-rule="evenodd">
        <g id="Qantas-partner-page---desktop-v3" transform="translate(-839.000000, -1942.000000)" fill="#E40000">
            <g id="Group-3" transform="translate(698.000000, 1701.000000)">
                <g id="Group-9" transform="translate(141.000000, 235.000000)">
                    <g id="Link-to-top" transform="translate(4.000000, 12.000000) scale(1, -1) rotate(-90.000000) translate(-4.000000, -12.000000) translate(-2.000000, 8.000000)">
                        <polygon id="Combined-Shape" points="9.24632034 3 0.125 3 0.125 4 9.31738816 4 6.95342712 6.36396103 7.66053391 7.07106781 11.1960678 3.53553391 10.8425144 3.18198052 7.66053391 0 6.95342712 0.707106781 9.24632034 3"></polygon>
                    </g>
                </g>
            </g>
        </g>
    </g>
</svg>